[gd_scene load_steps=2 format=1]

[ext_resource path="res://scripts/Food.gd" type="Script" id=1]

[node name="Food" type="KinematicBody2D"]

input/pickable = false
collision/layers = 1
collision/mask = 1
collision/margin = 0.08
script/script = ExtResource( 1 )

[node name="Sprite" type="Sprite" parent="."]


